digraph hola {
	node [shape=plaintext]
		"31B6-1810" [label=hola]
		"4F65-5A35" [label=a]
			"31B6-1810" -> "4F65-5A35"
		"3FBE-7F3F" [label=q]
			"4F65-5A35" -> "3FBE-7F3F"
		"3FBE-7F3F" [label=q]
		"100A-59CA" [label=b]
			"3FBE-7F3F" -> "100A-59CA"
		"leaf-c" [label=c]
			"100A-59CA" -> "leaf-c"
		"100A-E1B0" [label=d]
			"3FBE-7F3F" -> "100A-E1B0"
		"leaf-e" [label=e]
			"100A-E1B0" -> "leaf-e"
		"4F65-36B9" [label=f]
			"31B6-1810" -> "4F65-36B9"
		"596D-6EFA" [label=g]
			"4F65-36B9" -> "596D-6EFA"
		"596D-6EFA" [label=g]
		"leaf-h" [label=h]
			"596D-6EFA" -> "leaf-h"
}